Place,Name,Country,BodyweightKg,Squat1Kg,Squat2Kg,Squat3Kg,Squat4Kg,Bench1Kg,Bench2Kg,Bench3Kg,Bench4Kg,Deadlift1Kg,Deadlift2Kg,Deadlift3Kg,Deadlift4Kg,TotalKg,WeightClassKg,Division,Sex,Event,Equipment,Best3SquatKg,Best3BenchKg,Best3DeadliftKg,BirthYear
DQ,Hovhannes Antonyan,Armenia,49.65,-40,-40,-40,,-30,,,,-60,,,,,52,Amateur Sub-Teen 11-12,M,SBD,Wraps,,,,2006
1,Oleksandr Dudyk,Ukraine,68,100,-110,110,,75,82.5,-90,,100,110,120,,312.5,75,Amateur Teen 13-15,M,SBD,Wraps,110,82.5,120,2001
1,Erik Levonyan,Armenia,59.4,140,150,-160,,60,70,-75,,-160,-160,160,,380,60,Amateur Teen 16-17,M,SBD,Wraps,150,70,160,2000
1,Karen Arakelyan,Armenia,75,110,120,-130,,80,90,-100,,150,170,180,,390,75,Amateur Teen 16-17,M,SBD,Wraps,120,90,180,2000
1,Piotr Kobita,Poland,104.3,170,190,-210,,90,100,110,,195,215,-225,,515,110,Amateur Teen 16-17,M,SBD,Wraps,190,110,215,1999
1,Mykhailo Yurchenko,Ukraine,74.2,210,-222.5,-225,,120,130,-132.5,,240,255,-265.5,,595,75,Amateur Teen 18-19,M,SBD,Wraps,210,130,255,1999
1,Alexandru Poiana,Romania,66.75,180,-192.5,-192.5,,90,95,-97.5,,180,190,-202.5,,465,67.5,Amateur Juniors 20-23,M,SBD,Wraps,180,95,190,1994
1,Gabriele Daidone,Italy,67.9,135,145,-152.5,,110,-120,-120,,190,205,212.5,,467.5,75,Amateur Juniors 20-23,M,SBD,Wraps,145,110,212.5,1995
1,Sargis Stamboltsyan,Armenia,82.4,160,180,190,,110,125,-135,,170,185,200,,515,82.5,Amateur Juniors 20-23,M,SBD,Wraps,190,125,200,1995
2,Bogdan Druz,Ukraine,82.2,-150,-150,155,,120,127.5,-132.5,,180,-197.5,197.5,,480,82.5,Amateur Juniors 20-23,M,SBD,Wraps,155,127.5,197.5,1997
1,Artem Cheberyak,Ukraine,106.65,185,195,-200,,120,127.5,-132.5,,195,205,-217.5,,527.5,110,Amateur Juniors 20-23,M,SBD,Wraps,195,127.5,205,1994
DQ,Kamo Bagdasaryan,Armenia,50.6,-80,80,-100,,-90,90,-95,,-160,-160,-160,,,52,Amateur Open,M,SBD,Wraps,80,90,,1993
1,Piotr Stefaniuk,Poland,59.35,-110,110,120,,95,-105,105,,170,180,185,,410,60,Amateur Open,M,SBD,Wraps,120,105,185,1991
1,Mykhailo Yurchenko,Ukraine,74.2,210,-222.5,-225,,120,130,-132.5,,240,255,-265.5,,595,75,Amateur Open,M,SBD,Wraps,210,130,255,1999
2,Tomasz Miloch,Poland,74.86,200,210,-215,,130,135,-140,,220,230,240,,585,75,Amateur Open,M,SBD,Wraps,210,135,240,1983
1,Ivan Kozyr,Ukraine,81.55,165,175,-182.5,,170,175,-180,,170,185,200,,550,82.5,Amateur Open,M,SBD,Wraps,175,175,200,1986
1,Dmytro Bogomaz,Ukraine,88.5,200,205,-210,,125,135,-145,,220,230,-242.5,,570,90,Amateur Open,M,SBD,Wraps,205,135,230,1990
2,Andriy Sokolov,Ukraine,85.05,-200,200,-210,,120,130,-135,,220,-230,-230,,550,90,Amateur Open,M,SBD,Wraps,200,130,220,1987
1,Oleksandr Lisovskiy #1,Ukraine,94.8,220,235,245,,142.5,150,155,,252.5,265,275,,675,100,Amateur Open,M,SBD,Wraps,245,155,275,1990
2,Denys Petrov,Ukraine,99.6,230,-240,-240,,155,160,-165,,240,-250,-250,,630,100,Amateur Open,M,SBD,Wraps,230,160,240,1984
1,Andriy Kuzin,Ukraine,101.8,-210,220,230,,155,165,172.5,,210,225,230,,632.5,110,Amateur Open,M,SBD,Wraps,230,172.5,230,1985
2,Ararat Loretsyan,Armenia,109,-200,200,-222.5,,140,150,160,,220,230,-235,,590,110,Amateur Open,M,SBD,Wraps,200,160,230,1989
3,Pavlo Kipnyak,Ukraine,106.4,200,-220,,,150,-160,-160,,210,230,,,580,110,Amateur Open,M,SBD,Wraps,200,150,230,1969
4,Michał Szaszkowski,Poland,100.35,170,180,-185,,110,-120,-120,,160,170,175,,465,110,Amateur Open,M,SBD,Wraps,180,110,175,1988
1,Oleksandr Kalkutin,Ukraine,131,220,240,,,140,150,-160,,210,230,-240,,620,140,Amateur Open,M,SBD,Wraps,240,150,230,1965
1,Oleg Brazhnyk,Ukraine,160,180,-200,200,,110,120,-130,,180,200,210,,530,140+,Amateur Open,M,SBD,Wraps,200,120,210,1970
1,Tomasz Miloch,Poland,74.86,200,210,-215,,130,135,-140,,220,230,240,,585,75,Amateur Submasters 33-39,M,SBD,Wraps,210,135,240,1983
1,Karen Hovhannisyan,Armenia,80.3,110,120,130,,95,105,-110,,160,180,-200,,415,82.5,Amateur Submasters 33-39,M,SBD,Wraps,130,105,180,1978
1,David Asoyan,Armenia,89.05,140,-170,170,,90,110,-115,,170,-190,-190,,450,90,Amateur Submasters 33-39,M,SBD,Wraps,170,110,170,1981
1,Anatolii Rubin,Ukraine,181.5,140,150,160,,90,100,110,,130,,,,400,140+,Amateur Submasters 33-39,M,SBD,Wraps,160,110,130,1984
1,Volodymyr Bushtryuk,Ukraine,81,200,210,220,,130,135,-140,,170,180,187.5,,542.5,82.5,Amateur Masters 40-44,M,SBD,Wraps,220,135,187.5,1976
1,Andrii Zhdanov,Ukraine,89.25,210,-230,-230,,120,130,135,,200,225,,,570,90,Amateur Masters 40-44,M,SBD,Wraps,210,135,225,1975
1,Pavlo Kipnyak,Ukraine,106.4,200,-220,,,150,-160,-160,,210,230,,,580,110,Amateur Masters 45-49,M,SBD,Wraps,200,150,230,1969
1,Rafał Klauz,Poland,113,190,200,210,,145,155,162.5,,220,240,,,612.5,125,Amateur Masters 45-49,M,SBD,Wraps,210,162.5,240,1971
1,Oleg Brazhnyk,Ukraine,160,180,-200,200,,110,120,-130,,180,200,210,,530,140+,Amateur Masters 45-49,M,SBD,Wraps,200,120,210,1970
1,Mykhailo Burkov,Ukraine,79,160,170,-175,,110,115,117.5,,160,170,180,,467.5,82.5,Amateur Masters 50-54,M,SBD,Wraps,170,117.5,180,1963
2,Andrzej Stasiak,Poland,79.6,-120,130,-140,,110,-120,-120,,165,185,190,,430,82.5,Amateur Masters 50-54,M,SBD,Wraps,130,110,190,1965
1,Oleksandr Kalkutin,Ukraine,131,220,240,,,140,150,-160,,210,230,-240,,620,140,Amateur Masters 50-54,M,SBD,Wraps,240,150,230,1965
1,Volodymyr Morozevych,Ukraine,65.15,80,90,100,,70,75,-80,,80,100,110,,285,67.5,Amateur Masters 55-59,M,SBD,Wraps,100,75,110,1958
1,Stefan Sochaňski,Poland,90.1,-170,170,,,85,92.5,,,190,-212.5,,,452.5,100,Amateur Masters 65-69,M,SBD,Wraps,170,92.5,190,1948
1,Mykhailo Burkov,Ukraine,79,160,170,-175,,110,115,117.5,,160,170,180,,467.5,82.5,Amateur Military/Fire/Police,M,SBD,Wraps,170,117.5,180,1963
1,Anatolii Rubin,Ukraine,181.5,140,150,160,,90,100,110,,130,,,,400,140+,Amateur Military/Fire/Police,M,SBD,Wraps,160,110,130,1984
1,Vlada Sova,Ukraine,59.8,90,-100,-100,,-55,55,-62.5,,110,-117.5,117.5,,262.5,60,Amateur Teen 16-17,F,SBD,Wraps,90,55,117.5,1999
2,Diana Mishchenko,Ukraine,58.8,-70,70,80,,-30,30,37.5,,80,87.5,92.5,,210,60,Amateur Teen 16-17,F,SBD,Wraps,80,37.5,92.5,2000
1,Anna Sivakova,Ukraine,46.75,-90,95,-100,,40,-42.5,42.5,,87.5,92.5,95,,232.5,48,Amateur Teen 18-19,F,SBD,Wraps,95,42.5,95,1997
1,Katerina Protolyuk,Ukraine,55.2,-100,100,110,,55,57.5,-60,,-90,90,-102.5,,257.5,56,Amateur Juniors 20-23,F,SBD,Wraps,110,57.5,90,1996
1,Lidiia Grygorashchuk,Ukraine,59.9,85,95,105,,42.5,-47.5,47.5,,85,95,-107.5,,247.5,60,Amateur Juniors 20-23,F,SBD,Wraps,105,47.5,95,1993
1,Yulia Manko,Ukraine,64.55,-100,100,105,,55,57.5,60,,-110,110,120,,285,67.5,Amateur Juniors 20-23,F,SBD,Wraps,105,60,120,1993
2,Yana Mulishova,Ukraine,62.3,70,80,85,,37.5,40,45,,80,90,95,,225,67.5,Amateur Juniors 20-23,F,SBD,Wraps,85,45,95,1995
1,Nadiya Osaenko,Ukraine,43.8,50,55,60,,30,35,-37.5,,-80,-85,85,,180,44,Amateur Open,F,SBD,Wraps,60,35,85,1990
1,Anna Tarasenko,Ukraine,47.5,90,100,105,,65,70,72.5,,110,120,130,,307.5,48,Amateur Open,F,SBD,Wraps,105,72.5,130,1989
2,Tetyana Stepatska,Ukraine,47.9,-90,95,-102.5,,40,42.5,45,,75,82.5,90,,230,48,Amateur Open,F,SBD,Wraps,95,45,90,1989
1,Maryna Rolando,Ukraine,52,60,65,70,,35,40,-42.5,,70,75,80,,190,52,Amateur Open,F,SBD,Wraps,70,40,80,1988
DQ,Olena Cheremnova,Ukraine,52,-100,-100,-100,,-50,,,,-105,,,,,52,Amateur Open,F,SBD,Wraps,,,,1983
1,Olga Skorokhodova,Ukraine,56,120,-130,130,,65,70,-75,,120,-130,130,,330,56,Amateur Open,F,SBD,Wraps,130,70,130,1980
1,Yuliya Malinovska,Ukraine,60,122.5,127.5,132.5,,60,65,-70,,130,140,150,,347.5,60,Amateur Open,F,SBD,Wraps,132.5,65,150,1984
2,Svitlana Glatman,Ukraine,59.8,122.5,-127.5,127.5,,60,65,-67.5,,122.5,132.5,137.5,,330,60,Amateur Open,F,SBD,Wraps,127.5,65,137.5,1981
1,Nataliya Mavdrik,Ukraine,66,150,155,-157.5,,90,92.5,,,150,-155,-155,,397.5,67.5,Amateur Open,F,SBD,Wraps,155,92.5,150,1984
1,Viktoria Olijnyk,Ukraine,75,100,-110,110,,50,-55,-55,,120,130,-140,,290,75,Amateur Open,F,SBD,Wraps,110,50,130,1968
1,Marzena Janzer,Poland,75.75,85,95,105,,77.5,82.5,85,,110,120,125,,315,82.5,Amateur Open,F,SBD,Wraps,105,85,125,1974
2,Tetyana Khomyak,Ukraine,75.35,95,-110,110,,55,65,70,,100,110,120,,300,82.5,Amateur Open,F,SBD,Wraps,110,70,120,1979
1,Olga Skorokhodova,Ukraine,56,120,-130,130,,65,70,-75,,120,-130,130,,330,56,Amateur Submasters 33-39,F,SBD,Wraps,130,70,130,1980
DQ,Tetiana Grygorieva,Ukraine,55.45,-90,-90,-90,,-45,,,,-120,,,,,56,Amateur Submasters 33-39,F,SBD,Wraps,,,,1980
1,Svitlana Glatman,Ukraine,59.8,122.5,-127.5,127.5,,60,65,-67.5,,122.5,132.5,137.5,,330,60,Amateur Submasters 33-39,F,SBD,Wraps,127.5,65,137.5,1981
1,Nataliya Mavdrik,Ukraine,66,150,155,-157.5,,90,92.5,,,150,-155,-155,,397.5,67.5,Amateur Submasters 33-39,F,SBD,Wraps,155,92.5,150,1984
1,Tetyana Khomyak,Ukraine,75.35,95,-110,110,,55,65,70,,100,110,120,,300,82.5,Amateur Submasters 33-39,F,SBD,Wraps,110,70,120,1979
1,Marzena Janzer,Poland,75.75,85,95,105,,77.5,82.5,85,,110,120,125,,315,82.5,Amateur Masters 40-44,F,SBD,Wraps,105,85,125,1974
1,Olga Kritikova,Ukraine,63,-85,85,100,,60,-67.5,-67.5,,-90,-100,100,,260,67.5,Amateur Masters 45-49,F,SBD,Wraps,100,60,100,1971
1,Viktoria Olijnyk,Ukraine,75,100,-110,110,,50,-55,-55,,120,130,-140,,290,75,Amateur Masters 45-49,F,SBD,Wraps,110,50,130,1968
1,Volodymyr Kuzma,Ukraine,74.05,-215,-215,215,,115,122.5,-127.5,,210,215,220,,557.5,75,Pro Teen 18-19,M,SBD,Wraps,215,122.5,220,1997
1,Oleksandr Klokov,Poland,101.9,220,-250,250,,152.5,162.5,-170,,270,-285,-287.5,,682.5,110,Pro Teen 18-19,M,SBD,Wraps,250,162.5,270,1997
1,Andriy Boiko,Ukraine,74.6,200,212.5,-222.5,,105,110,-115,,200,207.5,220,,542.5,75,Pro Juniors 20-23,M,SBD,Wraps,212.5,110,220,1993
1,Tomasz Benisz,Poland,98,210,220,-230,,140,150,,,230,250,270,,640,100,Pro Juniors 20-23,M,SBD,Wraps,220,150,270,1996
1,Kamil Górski,Poland,118.6,-260,260,-280,,190,200,-210,,250,260,-275,,720,125,Pro Juniors 20-23,M,SBD,Wraps,260,200,260,1995
DQ,Kostyantin Barkov,Ukraine,117.7,-340,-340,-350,,-180,,,,-340,,,,,125,Pro Juniors 20-23,M,SBD,Wraps,,,,1996
1,Volodymyr Kuzma,Ukraine,74.05,-215,-215,215,,115,122.5,-127.5,,210,215,220,,557.5,75,Pro Open,M,SBD,Wraps,215,122.5,220,1997
1,Arkadiy Shalokha,Ukraine,82.5,290,310,-330,,175,185,192.5,,285,297.5,-302.5,,800,82.5,Pro Open,M,SBD,Wraps,310,192.5,297.5,1983
2,Andriy Bodrov,Ukraine,79.6,260,280,-300,,150,-160,-160,,255,270,-280,,700,82.5,Pro Open,M,SBD,Wraps,280,150,270,1992
3,Nazarii Tur,Ukraine,80.9,-200,200,220,,130,140,-150,,240,250,-260,,610,82.5,Pro Open,M,SBD,Wraps,220,140,250,1988
4,Oleg Klymenko,Ukraine,81.3,230,240,-250,,130,-135,-140,,230,-240,240,,610,82.5,Pro Open,M,SBD,Wraps,240,130,240,1988
1,Oleksandr Shapovalov,Ukraine,89.4,-300,300,-310,,190,195,-200,,260,270,-275,,765,90,Pro Open,M,SBD,Wraps,300,195,270,1990
1,Volodymyr Melnyk,Ukraine,98.75,280,-300,-300,,-180,185,-195,,260,280,-290,,745,100,Pro Open,M,SBD,Wraps,280,185,280,1984
2,Igor Stashchuk,Ukraine,96.45,210,220,-235,,155,165,-175,,200,220,240,,625,100,Pro Open,M,SBD,Wraps,220,165,240,1987
DQ,Vasyl Petryshchak,Ukraine,98.2,-210,-215,-215,,-155,,,,-210,,,,,100,Pro Open,M,SBD,Wraps,,,,1988
DQ,Oleg Khristoforov,Ukraine,99.8,-350,-350,-352.5,,-180,,,,-270,,,,,100,Pro Open,M,SBD,Wraps,,,,1975
1,Łukasz Lipka,Poland,108.35,240,260,270,,160,-170,-170,,280,300,-312.5,,730,110,Pro Open,M,SBD,Wraps,270,160,300,1992
2,Rafał Wójcik,Poland,109.95,-230,240,250,,175,182.5,-185,,280,295,-310,,727.5,110,Pro Open,M,SBD,Wraps,250,182.5,295,1987
3,Viktor Rublyov,Ukraine,100.5,-250,250,260,,170,180,-185,,260,270,-280,,710,110,Pro Open,M,SBD,Wraps,260,180,270,1975
4,Denys Sydorov,Ukraine,105.8,240,255,270,,135,150,160,,250,270,-300,,700,110,Pro Open,M,SBD,Wraps,270,160,270,1987
1,Damian Sieradzki,Poland,119.85,200,220,-230,,150,162.5,-170,,260,280,-300,,662.5,125,Pro Open,M,SBD,Wraps,220,162.5,280,1989
DQ,Kostyantin Barkov,Ukraine,117.7,-340,-340,-350,,-180,,,,-340,,,,,125,Pro Open,M,SBD,Wraps,,,,1996
1,Roman Dzyuba,Ukraine,129.9,310,330,342.5,,190,200,210,,300,315,325,,877.5,140,Pro Open,M,SBD,Wraps,342.5,210,325,1968
2,Hayk Barsamyan,Armenia,132.05,240,270,290,,170,175,180,,270,-290,-290,,740,140,Pro Open,M,SBD,Wraps,290,180,270,1983
1,Przemysław Karwański,Poland,119.4,200,220,240,,160,-170,170,,260,275,-290,,685,125,Pro Submasters 33-39,M,SBD,Wraps,240,170,275,1980
1,Oleksandr Popovych,Ukraine,74.8,165,-175,180,,130,142.5,-150,,180,-190,190,,512.5,75,Pro Masters 40-44,M,SBD,Wraps,180,142.5,190,1972
DQ,Oleg Khristoforov,Ukraine,99.8,-350,-350,-352.5,,-180,,,,-270,,,,,100,Pro Masters 40-44,M,SBD,Wraps,,,,1975
1,Viktor Rublyov,Ukraine,100.5,-250,250,260,,170,180,-185,,260,270,-280,,710,110,Pro Masters 40-44,M,SBD,Wraps,260,180,270,1975
2,Mamuka Gegidze,Georgia,108.9,140,160,180,,-130,150,160,,190,210,225,,565,110,Pro Masters 40-44,M,SBD,Wraps,180,160,225,1974
1,Roman Dzyuba,Ukraine,129.9,310,330,342.5,,190,200,210,,300,315,325,,877.5,140,Pro Masters 45-49,M,SBD,Wraps,342.5,210,325,1968
1,Andriy Boiko,Ukraine,74.6,200,212.5,-222.5,,105,110,-115,,200,207.5,220,,542.5,75,Pro Military/Fire/Police,M,SBD,Wraps,212.5,110,220,1993
DQ,Ilia Kochiashvili,Georgia,108.55,-250,-250,-250,,-160,,,,-250,,,,,110,Pro Military/Fire/Police,M,SBD,Wraps,,,,1991
1,Weronika Lenort,Poland,66.8,110,120,-130,,65,70,-75,,140,155,170,,360,67.5,Pro Teen 16-17,F,SBD,Wraps,120,70,170,2000
1,Olena Razuvaieva,Ukraine,66,150,-160,-160,,-77.5,80,-85,,145,150,-155,,380,67.5,Pro Open,F,SBD,Wraps,150,80,150,1988
1,Nver Gharibyan,Armenia,107.2,120,-130,,,100,,,,180,,,,400,110,Amateur Open,M,SBD,Multi-ply,120,100,180,1987
1,Valerii Strelets,Ukraine,82.5,170,190,200,,115,125,132.5,,181,200,210,-220,542.5,82.5,Amateur Masters 40-44,M,SBD,Multi-ply,200,132.5,210,1975
1,Stefan Sochaňski,Poland,90.1,210,230,,,105,115,,,-215,215,-245,,560,100,Amateur Masters 65-69,M,SBD,Multi-ply,230,115,215,1948
DQ,Kateryna Alekseienko,Ukraine,56,-120,-120,-120,,-65,,,,-115,,,,,56,Amateur Juniors 20-23,F,SBD,Multi-ply,,,,1997
1,Andrii Tupchii,Ukraine,90,200,210,-215,,150,160,-165,,220,235,250,,620,90,Pro Open,M,SBD,Multi-ply,210,160,250,1987
1,Alan Kviatkovskii,Ukraine,50.85,,,,,45,-47.5,-47.5,,,,,,45,52,Amateur Sub-Teen 11-12,M,B,Raw,,45,,2005
1,Mykola Sagan,Ukraine,79.2,,,,,115,-120,-120,,,,,,115,82.5,Amateur Teen 13-15,M,B,Raw,,115,,2002
1,Hakob Hakobyan,Armenia,72.7,,,,,-95,95,-105,,,,,,95,75,Amateur Teen 16-17,M,B,Raw,,95,,1999
1,Vasil Kovalchuk,Ukraine,73.5,,,,,117.5,125,127.5,,,,,,127.5,75,Amateur Teen 18-19,M,B,Raw,,127.5,,1999
1,Ivan Messina,Italy,77.2,,,,,115,-120,120,,,,,,120,82.5,Amateur Teen 18-19,M,B,Raw,,120,,1998
1,Petro Kalynovskyy,Ukraine,67,,,,,115,125,-130,,,,,,125,67.5,Amateur Juniors 20-23,M,B,Raw,,125,,1996
2,Andrea Di Trio,Italy,64.55,,,,,100,112.5,117.5,,,,,,117.5,67.5,Amateur Juniors 20-23,M,B,Raw,,117.5,,1993
3,Artur Bykov,Ukraine,62.8,,,,,105,110,-112.5,,,,,,110,67.5,Amateur Juniors 20-23,M,B,Raw,,110,,1993
1,Vilyam Saroyan,Armenia,74.65,,,,,-90,100,-145,,,,,,100,75,Amateur Juniors 20-23,M,B,Raw,,100,,1994
1,Kostiantyn Kyryk,Ukraine,81.95,,,,,110,115,120,,,,,,120,82.5,Amateur Juniors 20-23,M,B,Raw,,120,,1997
DQ,Bogdan Druz,Ukraine,82.2,,,,,-132.5,-132.5,-132.5,,,,,,,82.5,Amateur Juniors 20-23,M,B,Raw,,,,1997
1,Patryk Kaczmarek,Poland,88.3,,,,,145,150,-155,,,,,,150,90,Amateur Juniors 20-23,M,B,Raw,,150,,1995
1,Alan Kviatkovskii,Ukraine,50.85,,,,,45,-47.5,-47.5,,,,,,45,52,Amateur Open,M,B,Raw,,45,,2005
1,Vyacheslav Batyuk,Ukraine,59.95,,,,,-110,110,112.5,,,,,,112.5,60,Amateur Open,M,B,Raw,,112.5,,1984
1,Sergii Melnyk,Ukraine,67.5,,,,,135,140,-145,,,,,,140,67.5,Amateur Open,M,B,Raw,,140,,1982
2,Roman Golyshev,Ukraine,65.65,,,,,115,-120,-125,,,,,,115,67.5,Amateur Open,M,B,Raw,,115,,1991
1,Gor Khachatryan,Armenia,74.2,,,,,160,165,-170,,,,,,165,75,Amateur Open,M,B,Raw,,165,,1986
2,Oleksandr Danylko,Ukraine,72.5,,,,,-117.5,120,125,,,,,,125,75,Amateur Open,M,B,Raw,,125,,1983
1,Ivan Kozyr,Ukraine,81.55,,,,,170,175,-180,,,,,,175,82.5,Amateur Open,M,B,Raw,,175,,1986
2,Volodymyr Lagoda,Ukraine,80.45,,,,,160,165,167.5,,,,,,167.5,82.5,Amateur Open,M,B,Raw,,167.5,,1968
3,Oleksandr Klymenko,Ukraine,81.25,,,,,145,150,155,,,,,,155,82.5,Amateur Open,M,B,Raw,,155,,1990
4,Artem Sukhovarov,Ukraine,80.3,,,,,127.5,132.5,-135,,,,,,132.5,82.5,Amateur Open,M,B,Raw,,132.5,,1976
5,Oleksandr Marynyak,Ukraine,80.55,,,,,125,132.5,-140,,,,,,132.5,82.5,Amateur Open,M,B,Raw,,132.5,,1993
6,Kostiantyn Kyryk,Ukraine,81.95,,,,,110,115,120,,,,,,120,82.5,Amateur Open,M,B,Raw,,120,,1997
DQ,Evgen Kytajgorodskii,Ukraine,81.2,,,,,-140,-140,-140,,,,,,,82.5,Amateur Open,M,B,Raw,,,,1989
1,Dmytro Lyashuk,Ukraine,89.2,,,,,160,165,170,,,,,,170,90,Amateur Open,M,B,Raw,,170,,1989
2,Oleksandr Derevianchenko,Ukraine,88.7,,,,,140,147.5,155,,,,,,155,90,Amateur Open,M,B,Raw,,155,,1988
3,Yuriy Filonenko,Ukraine,88.9,,,,,132.5,137.5,140,142.5,,,,,140,90,Amateur Open,M,B,Raw,,140,,1954
1,Andrii Petruk,Ukraine,96.15,,,,,180,187.5,-192.5,,,,,,187.5,100,Amateur Open,M,B,Raw,,187.5,,1975
2,Viacheslav Teliura,Ukraine,99.75,,,,,185,-190,-190,,,,,,185,100,Amateur Open,M,B,Raw,,185,,1967
3,Nazar Korzhak,Ukraine,98.7,,,,,-167.5,167.5,170,,,,,,170,100,Amateur Open,M,B,Raw,,170,,1993
4,Evgen Fylyma,Ukraine,99.45,,,,,140,147.5,152.5,,,,,,152.5,100,Amateur Open,M,B,Raw,,152.5,,1990
5,Oleksandr Gavrylyuk,Ukraine,93.8,,,,,145,-150,-152.5,,,,,,145,100,Amateur Open,M,B,Raw,,145,,1980
1,Oleksandr Tertychnyy,Ukraine,106.1,,,,,185,190,195,,,,,,195,110,Amateur Open,M,B,Raw,,195,,1968
2,Anatolii Tiroshko,Ukraine,106.2,,,,,152.5,157.5,162.5,,,,,,162.5,110,Amateur Open,M,B,Raw,,162.5,,1966
3,Pavlo Kipnyak,Ukraine,106.4,,,,,150,-160,-160,,,,,,150,110,Amateur Open,M,B,Raw,,150,,1969
4,Sergiy Shumskyy,Ukraine,108.5,,,,,-150,150,-165,-165,,,,,150,110,Amateur Open,M,B,Raw,,150,,1985
1,Viktor Bozhukha,Ukraine,116.3,,,,,170,175,-180,,,,,,175,125,Amateur Open,M,B,Raw,,175,,1978
1,Marek Markewicz,Poland,132.1,,,,,215,225,-227.5,,,,,,225,140,Amateur Open,M,B,Raw,,225,,1979
2,Oleksandr Kalkutin,Ukraine,131,,,,,140,150,-160,,,,,,150,140,Amateur Open,M,B,Raw,,150,,1965
1,Gurhan Gurler,Turkey,161,,,,,-180,-180,180,,,,,,180,140+,Amateur Open,M,B,Raw,,180,,1983
2,Oleg Brazhnyk,Ukraine,160,,,,,110,120,-130,,,,,,120,140+,Amateur Open,M,B,Raw,,120,,1970
1,Lyubomyr Kogut,Ukraine,81.8,,,,,120,125,132.5,,,,,,132.5,82.5,Amateur Submasters 33-39,M,B,Raw,,132.5,,1983
1,Yaroslav Yurkiv,Ukraine,87.55,,,,,130,140,150,,,,,,150,90,Amateur Submasters 33-39,M,B,Raw,,150,,1983
1,Oleksandr Gavrylyuk,Ukraine,93.8,,,,,145,-150,-152.5,,,,,,145,100,Amateur Submasters 33-39,M,B,Raw,,145,,1980
2,Ivan Tymokhin,Ukraine,92.6,,,,,120,-130,-130,,,,,,120,100,Amateur Submasters 33-39,M,B,Raw,,120,,1980
1,Viktor Bozhukha,Ukraine,116.3,,,,,170,175,-180,,,,,,175,125,Amateur Submasters 33-39,M,B,Raw,,175,,1978
1,Marek Markewicz,Poland,132.1,,,,,215,225,-227.5,,,,,,225,140,Amateur Submasters 33-39,M,B,Raw,,225,,1979
1,Anatolii Rubin,Ukraine,181.5,,,,,90,100,110,,,,,,110,140+,Amateur Submasters 33-39,M,B,Raw,,110,,1984
1,Artem Sukhovarov,Ukraine,80.3,,,,,127.5,132.5,-135,,,,,,132.5,82.5,Amateur Masters 40-44,M,B,Raw,,132.5,,1976
1,Osman Bora,Turkey,89.35,,,,,-95,100,-110,,,,,,100,90,Amateur Masters 40-44,M,B,Raw,,100,,1975
1,Andrii Petruk,Ukraine,96.15,,,,,180,187.5,-192.5,,,,,,187.5,100,Amateur Masters 40-44,M,B,Raw,,187.5,,1975
2,Valentyn Slutskyy,Ukraine,98.3,,,,,150,160,-167.5,,,,,,160,100,Amateur Masters 40-44,M,B,Raw,,160,,1973
3,Grzegorz Chałubiński,Poland,95.7,,,,,130,-135,-135,,,,,,130,100,Amateur Masters 40-44,M,B,Raw,,130,,1972
1,Volodymyr Ratushnyy,Ukraine,100.2,,,,,150,160,-162.5,,,,,,160,110,Amateur Masters 40-44,M,B,Raw,,160,,1974
2,Vitaliy Shykun,Ukraine,105.35,,,,,155,160,-175,,,,,,160,110,Amateur Masters 40-44,M,B,Raw,,160,,1974
3,Tomasz Prętkiewicz,Poland,109.3,,,,,145,-155,-155,,,,,,145,110,Amateur Masters 40-44,M,B,Raw,,145,,1973
1,Oleksandr Slutskyy,Ukraine,123.2,,,,,-170,175,180,,,,,,180,125,Amateur Masters 40-44,M,B,Raw,,180,,1975
1,Oleksandr Shvab,Ukraine,126.1,,,,,130,,,,,,,,130,140,Amateur Masters 40-44,M,B,Raw,,130,,1976
1,Oleg Onyshko,Ukraine,59.4,,,,,55,60,-62.5,,,,,,60,60,Amateur Masters 45-49,M,B,Raw,,60,,1968
1,Volodymyr Lagoda,Ukraine,80.45,,,,,160,165,167.5,,,,,,167.5,82.5,Amateur Masters 45-49,M,B,Raw,,167.5,,1968
1,Yurii Shcherbina,Ukraine,97.9,,,,,160,165,-167.5,,,,,,165,100,Amateur Masters 45-49,M,B,Raw,,165,,1968
1,Oleksandr Tertychnyy,Ukraine,106.1,,,,,185,190,195,,,,,,195,110,Amateur Masters 45-49,M,B,Raw,,195,,1968
2,Pavlo Kipnyak,Ukraine,106.4,,,,,150,-160,-160,,,,,,150,110,Amateur Masters 45-49,M,B,Raw,,150,,1969
1,Vladislav Marchenko,Ukraine,120.5,,,,,150,155,160,,,,,,160,125,Amateur Masters 45-49,M,B,Raw,,160,,1967
1,Oleg Brazhnyk,Ukraine,160,,,,,110,120,-130,,,,,,120,140+,Amateur Masters 45-49,M,B,Raw,,120,,1970
1,Igor Chumak,Ukraine,72.85,,,,,100,110,115,,,,,,115,75,Amateur Masters 50-54,M,B,Raw,,115,,1965
1,Viacheslav Bulgakov,Ukraine,82.25,,,,,120,130,140,,,,,,140,82.5,Amateur Masters 50-54,M,B,Raw,,140,,1966
2,Andrzej Stasiak,Poland,79.6,,,,,110,-120,-120,,,,,,110,82.5,Amateur Masters 50-54,M,B,Raw,,110,,1965
3,Gennadiy Ivanchenko,Ukraine,80.95,,,,,97.5,105,-112.5,,,,,,105,82.5,Amateur Masters 50-54,M,B,Raw,,105,,1966
1,Viacheslav Teliura,Ukraine,99.75,,,,,185,-190,-190,,,,,,185,100,Amateur Masters 50-54,M,B,Raw,,185,,1967
1,Anatolii Tiroshko,Ukraine,106.2,,,,,152.5,157.5,162.5,,,,,,162.5,110,Amateur Masters 50-54,M,B,Raw,,162.5,,1966
1,Oleksandr Kalkutin,Ukraine,131,,,,,140,150,-160,,,,,,150,140,Amateur Masters 50-54,M,B,Raw,,150,,1965
2,Gagik Saroyan,Armenia,125.2,,,,,100,-115,-170,,,,,,100,140,Amateur Masters 50-54,M,B,Raw,,100,,1967
1,Yuriy Filonenko,Ukraine,88.9,,,,,132.5,137.5,140,142.5,,,,,140,90,Amateur Masters 60-64,M,B,Raw,,140,,1954
1,Stefan Sochaňski,Poland,90.1,,,,,85,92.5,,,,,,,92.5,100,Amateur Masters 65-69,M,B,Raw,,92.5,,1948
1,Valērijs Petrovs,Latvia,87.6,,,,,107.5,112.5,115,,,,,,115,90,Amateur Masters 70-74,M,B,Raw,,115,,1946
1,Igor Zubarev,Ukraine,74,,,,,35,40,42.5,,,,,,42.5,75,Amateur Masters 75-79,M,B,Raw,,42.5,,1941
1,Oleg Onyshko,Ukraine,59.4,,,,,55,60,-62.5,,,,,,60,60,Amateur Military/Fire/Police,M,B,Raw,,60,,1968
1,Roman Baichykov,Ukraine,96.2,,,,,70,75,80,,,,,,80,100,Amateur Military/Fire/Police,M,B,Raw,,80,,1990
1,Anatolii Rubin,Ukraine,181.5,,,,,90,100,110,,,,,,110,140+,Amateur Military/Fire/Police,M,B,Raw,,110,,1984
1,Viktoriia Vilchyk,Ukraine,51.1,,,,,-30,30,40,,,,,,40,52,Amateur Teen 13-15,F,B,Raw,,40,,2003
1,Diana Mishchenko,Ukraine,58.8,,,,,-30,30,37.5,,,,,,37.5,60,Amateur Teen 16-17,F,B,Raw,,37.5,,2000
1,Alina Samuilova,Ukraine,51.55,,,,,57.5,60,62.5,,,,,,62.5,52,Amateur Juniors 20-23,F,B,Raw,,62.5,,1994
2,Irina Galayda,Ukraine,51.2,,,,,55,60,-65,,,,,,60,52,Amateur Juniors 20-23,F,B,Raw,,60,,1994
1,Joanna Gawron,Poland,59.7,,,,,40,45,52.5,,,,,,52.5,60,Amateur Juniors 20-23,F,B,Raw,,52.5,,1993
1,Yana Mulishova,Ukraine,62.3,,,,,37.5,40,45,,,,,,45,67.5,Amateur Juniors 20-23,F,B,Raw,,45,,1995
1,Renata Zapała,Poland,72.65,,,,,50,57.5,-62.5,,,,,,57.5,75,Amateur Juniors 20-23,F,B,Raw,,57.5,,1994
1,Nadiya Osaenko,Ukraine,43.8,,,,,30,35,-37.5,,,,,,35,44,Amateur Open,F,B,Raw,,35,,1990
1,Anna Tarasenko,Ukraine,47.5,,,,,65,70,72.5,,,,,,72.5,48,Amateur Open,F,B,Raw,,72.5,,1989
2,Olga Morozovska,Ukraine,47.75,,,,,-65,67.5,70,,,,,,70,48,Amateur Open,F,B,Raw,,70,,1991
3,Tetyana Stepatska,Ukraine,47.9,,,,,40,42.5,45,,,,,,45,48,Amateur Open,F,B,Raw,,45,,1989
1,Nataliya Melnychuk,Ukraine,51.6,,,,,67.5,70,72.5,-75,,,,,72.5,52,Amateur Open,F,B,Raw,,72.5,,1975
2,Alina Samuilova,Ukraine,51.55,,,,,57.5,60,62.5,,,,,,62.5,52,Amateur Open,F,B,Raw,,62.5,,1994
3,Irina Galayda,Ukraine,51.2,,,,,55,60,-65,,,,,,60,52,Amateur Open,F,B,Raw,,60,,1994
4,Olena Cheremnova,Ukraine,52,,,,,-50,-55,55,,,,,,55,52,Amateur Open,F,B,Raw,,55,,1983
1,Armine Sargsyan,Ukraine,56,,,,,65,67.5,-70,,,,,,67.5,56,Amateur Open,F,B,Raw,,67.5,,1981
2,Nadiya Bilanchuk,Ukraine,53.5,,,,,50,55,-60,,,,,,55,56,Amateur Open,F,B,Raw,,55,,1989
1,Nataliya Mavdrik,Ukraine,66,,,,,90,92.5,,,,,,,92.5,67.5,Amateur Open,F,B,Raw,,92.5,,1984
1,Iryna Koropets,Ukraine,72.15,,,,,80,82.5,87.5,,,,,,87.5,75,Amateur Open,F,B,Raw,,87.5,,1981
1,Armine Sargsyan,Ukraine,56,,,,,65,67.5,-70,,,,,,67.5,56,Amateur Submasters 33-39,F,B,Raw,,67.5,,1981
1,Svitlana Plakhtieva-Potebnya,Ukraine,60,,,,,-52.5,-52.5,52.5,,,,,,52.5,60,Amateur Submasters 33-39,F,B,Raw,,52.5,,1982
1,Nataliya Mavdrik,Ukraine,66,,,,,90,92.5,,,,,,,92.5,67.5,Amateur Submasters 33-39,F,B,Raw,,92.5,,1984
1,Iryna Koropets,Ukraine,72.15,,,,,80,82.5,87.5,,,,,,87.5,75,Amateur Submasters 33-39,F,B,Raw,,87.5,,1981
1,Nataliya Melnychuk,Ukraine,51.6,,,,,67.5,70,72.5,-75,,,,,72.5,52,Amateur Masters 40-44,F,B,Raw,,72.5,,1975
1,Viktoriia Ryabkova,Ukraine,59.3,,,,,45,47.5,-52.5,,,,,,47.5,60,Amateur Masters 40-44,F,B,Raw,,47.5,,1975
1,Olga Kritikova,Ukraine,63,,,,,60,-67.5,-67.5,,,,,,60,67.5,Amateur Masters 45-49,F,B,Raw,,60,,1971
2,Maryna Yavorovska,Ukraine,62.9,,,,,47.5,50,52.5,,,,,,52.5,67.5,Amateur Masters 45-49,F,B,Raw,,52.5,,1969
1,Bogdana Karavanska,Ukraine,47,,,,,85,90,-92.5,,,,,,90,48,Amateur Paralympian,F,B,Raw,,90,,1993
1,Oleg Mykhalskyy,Ukraine,37.3,,,,,47.5,50,52.5,-55,,,,,52.5,44,Pro Sub-Teen 11-12,M,B,Raw,,52.5,,2004
1,Patryk Strzałek,Poland,70.7,,,,,90,95,-100,,,,,,95,75,Pro Teen 16-17,M,B,Raw,,95,,2001
2,Giorgi Lortkipanidze,Georgia,73.6,,,,,70,85,-102.5,,,,,,85,75,Pro Teen 16-17,M,B,Raw,,85,,2001
1,Jakub Chrzanowski,Poland,67.5,,,,,155,165,-172.5,,,,,,165,67.5,Pro Teen 18-19,M,B,Raw,,165,,1997
1,Orkhan Maisarov,Azerbaijan,73.5,,,,,-160,165,-170,,,,,,165,75,Pro Juniors 20-23,M,B,Raw,,165,,1994
1,Volodymyr Yakymchuk,Ukraine,85.65,,,,,-160,160,-165,,,,,,160,90,Pro Juniors 20-23,M,B,Raw,,160,,1993
1,Krystian Piotrak,Poland,90.5,,,,,200,-215,-215,,,,,,200,100,Pro Juniors 20-23,M,B,Raw,,200,,1995
2,Dawid Ziółkowski,Poland,97.75,,,,,170,180,-190,,,,,,180,100,Pro Juniors 20-23,M,B,Raw,,180,,1995
1,Damian Rataj,Poland,105.5,,,,,210,215,-220,,,,,,215,110,Pro Juniors 20-23,M,B,Raw,,215,,1993
2,Aleksandr Bantsevich,Belarus,106.1,,,,,195,202.5,-210,,,,,,202.5,110,Pro Juniors 20-23,M,B,Raw,,202.5,,1993
1,Kamil Górski,Poland,118.6,,,,,190,200,-210,,,,,,200,125,Pro Juniors 20-23,M,B,Raw,,200,,1995
DQ,Ulaş Maden,Turkey,110.9,,,,,-150,-150,-150,,,,,,,125,Pro Juniors 20-23,M,B,Raw,,,,1996
1,Oleg Mykhalskyy,Ukraine,37.3,,,,,47.5,50,52.5,-55,,,,,52.5,44,Pro Open,M,B,Raw,,52.5,,2004
1,Jakub Chrzanowski,Poland,67.5,,,,,155,165,-172.5,,,,,,165,67.5,Pro Open,M,B,Raw,,165,,1997
2,Yuriy Tsaryk,Ukraine,64.45,,,,,105,-112.5,-112.5,,,,,,105,67.5,Pro Open,M,B,Raw,,105,,1992
1,Oleksandr Chernets,Ukraine,74.2,,,,,185,195,-202.5,,,,,,195,75,Pro Open,M,B,Raw,,195,,1991
2,Sergii Baibula,Ukraine,73.1,,,,,160,165,-170,,,,,,165,75,Pro Open,M,B,Raw,,165,,1974
3,Orkhan Maisarov,Azerbaijan,73.5,,,,,-160,165,-170,,,,,,165,75,Pro Open,M,B,Raw,,165,,1994
1,Mateusz Pawelak,Poland,80.15,,,,,-200,200,207.5,,,,,,207.5,82.5,Pro Open,M,B,Raw,,207.5,,1990
2,Viktor Blakytnyy,Ukraine,81.75,,,,,165,175,-180,,,,,,175,82.5,Pro Open,M,B,Raw,,175,,1981
1,Jarosław Buczko,Poland,89.85,,,,,205,212.5,220,,,,,,220,90,Pro Open,M,B,Raw,,220,,1992
2,Siarhei Khamitsevich,Belarus,89.5,,,,,195,200,207.5,,,,,,207.5,90,Pro Open,M,B,Raw,,207.5,,1987
3,Volodymyr Galyga,Ukraine,89.95,,,,,200,205,207.5,,,,,,207.5,90,Pro Open,M,B,Raw,,207.5,,1983
4,Oleksii Melnyk,Ukraine,86.85,,,,,190,200,205,,,,,,205,90,Pro Open,M,B,Raw,,205,,1990
1,Hovhannes Yazichyan,Armenia,96.5,,,,,210,215,-222.5,,,,,,215,100,Pro Open,M,B,Raw,,215,,1971
2,Patryk Szypuła,Poland,97.1,,,,,210,215,-222.5,,,,,,215,100,Pro Open,M,B,Raw,,215,,1979
3,Kostiantyn Grabovskyi,Ukraine,93.5,,,,,200,-210,210,,,,,,210,100,Pro Open,M,B,Raw,,210,,1976
4,Grygorii Danielyan,Ukraine,97.9,,,,,185,-190,-190,,,,,,185,100,Pro Open,M,B,Raw,,185,,1980
5,Franciszek Szabluk,Poland,97.1,,,,,-150,150,160,165,,,,,160,100,Pro Open,M,B,Raw,,160,,1956
1,Yaroslav Dunay,Ukraine,105.7,,,,,-225,232.5,-237.5,,,,,,232.5,110,Pro Open,M,B,Raw,,232.5,,1978
2,Iegor Polomoshnov,Ukraine,103.4,,,,,220,-230,-235,,,,,,220,110,Pro Open,M,B,Raw,,220,,1980
3,Grzegorz Rompalski,Poland,104.6,,,,,180,190,-197.5,,,,,,190,110,Pro Open,M,B,Raw,,190,,1982
4,Viktor Rublyov,Ukraine,100.5,,,,,170,180,-185,,,,,,180,110,Pro Open,M,B,Raw,,180,,1975
5,Andriy Gimbarov,Ukraine,108.1,,,,,150,-165,170,,,,,,170,110,Pro Open,M,B,Raw,,170,,1966
DQ,Andriy Tomashevych,Ukraine,109.2,,,,,-192.5,-197.5,-197.5,,,,,,,110,Pro Open,M,B,Raw,,,,1978
1,Ruslan Gutnev,Ukraine,111.85,,,,,185,-190,-190,,,,,,185,125,Pro Open,M,B,Raw,,185,,1991
DQ,Michał Tybora,Poland,121.8,,,,,-225,-225,,,,,,,,125,Pro Open,M,B,Raw,,,,1987
1,Waldemar Nacewicz,Poland,132.45,,,,,-220,220,230,235,,,,,230,140,Pro Open,M,B,Raw,,230,,1963
2,Viktor Kochmar,Ukraine,134.7,,,,,190,200,207.5,,,,,,207.5,140,Pro Open,M,B,Raw,,207.5,,1970
1,Marcin Karkula,Poland,151.6,,,,,250,260,-270,,,,,,260,140+,Pro Open,M,B,Raw,,260,,1982
1,Igor Trofymchuk,Ukraine,67.35,,,,,132.5,-137.5,-137.5,,,,,,132.5,67.5,Pro Submasters 33-39,M,B,Raw,,132.5,,1978
1,Radosław Rosiak,UK,72.15,,,,,125,-127.5,-127.5,,,,,,125,75,Pro Submasters 33-39,M,B,Raw,,125,,1980
1,Volodymyr Galyga,Ukraine,89.95,,,,,200,205,207.5,,,,,,207.5,90,Pro Submasters 33-39,M,B,Raw,,207.5,,1983
1,Patryk Szypuła,Poland,97.1,,,,,210,215,-222.5,,,,,,215,100,Pro Submasters 33-39,M,B,Raw,,215,,1979
2,Robert Kanclerz,Poland,95.2,,,,,190,195,-200,,,,,,195,100,Pro Submasters 33-39,M,B,Raw,,195,,1978
3,Grygorii Danielyan,Ukraine,97.9,,,,,185,-190,-190,,,,,,185,100,Pro Submasters 33-39,M,B,Raw,,185,,1980
1,Yaroslav Dunay,Ukraine,105.7,,,,,-225,232.5,-237.5,,,,,,232.5,110,Pro Submasters 33-39,M,B,Raw,,232.5,,1978
2,Grzegorz Rompalski,Poland,104.6,,,,,180,190,-197.5,,,,,,190,110,Pro Submasters 33-39,M,B,Raw,,190,,1982
3,Maksim Filatov,Belarus,106.1,,,,,175,182.5,-192.5,,,,,,182.5,110,Pro Submasters 33-39,M,B,Raw,,182.5,,1979
DQ,Andriy Tomashevych,Ukraine,109.2,,,,,-192.5,-197.5,-197.5,,,,,,,110,Pro Submasters 33-39,M,B,Raw,,,,1978
1,Marcin Karkula,Poland,151.6,,,,,250,260,-270,,,,,,260,140+,Pro Submasters 33-39,M,B,Raw,,260,,1982
1,Sergii Baibula,Ukraine,73.1,,,,,160,165,-170,,,,,,165,75,Pro Masters 40-44,M,B,Raw,,165,,1974
1,Oleksandr Ploskyy,Ukraine,89.2,,,,,155,-160,-160,,,,,,155,90,Pro Masters 40-44,M,B,Raw,,155,,1974
1,Kostiantyn Grabovskyi,Ukraine,93.5,,,,,200,-210,210,,,,,,210,100,Pro Masters 40-44,M,B,Raw,,210,,1976
2,Eugene Aleksienko,Ukraine,94.85,,,,,-200,200,-210,,,,,,200,100,Pro Masters 40-44,M,B,Raw,,200,,1976
1,Viktor Rublyov,Ukraine,100.5,,,,,170,180,-185,,,,,,180,110,Pro Masters 40-44,M,B,Raw,,180,,1975
1,Zbigniew Drewniak,Poland,130.85,,,,,160,175,190,,,,,,190,140,Pro Masters 40-44,M,B,Raw,,190,,1973
1,Andrii Khantil,Ukraine,89.1,,,,,140,150,-157.5,,,,,,150,90,Pro Masters 45-49,M,B,Raw,,150,,1968
1,Hovhannes Yazichyan,Armenia,96.5,,,,,210,215,-222.5,,,,,,215,100,Pro Masters 45-49,M,B,Raw,,215,,1971
1,Datuna Mzhavanadze,Georgia,110,,,,,-160,170,180,,,,,,180,110,Pro Masters 45-49,M,B,Raw,,180,,1972
2,Oleksandr Fedorov,Ukraine,105.2,,,,,122.5,127.5,132.5,,,,,,132.5,110,Pro Masters 45-49,M,B,Raw,,132.5,,1969
1,Viktor Kochmar,Ukraine,134.7,,,,,190,200,207.5,,,,,,207.5,140,Pro Masters 45-49,M,B,Raw,,207.5,,1970
1,Sergii Zhukotskyy,Ukraine,89.5,,,,,135,145,-150,,,,,,145,90,Pro Masters 50-54,M,B,Raw,,145,,1966
1,Mirosław Borkowski,Poland,98.8,,,,,130,135,140,,,,,,140,100,Pro Masters 50-54,M,B,Raw,,140,,1963
1,Sergii Deniak,Ukraine,101.85,,,,,160,-167.5,170,,,,,,170,110,Pro Masters 50-54,M,B,Raw,,170,,1966
2,Andriy Gimbarov,Ukraine,108.1,,,,,150,-165,170,,,,,,170,110,Pro Masters 50-54,M,B,Raw,,170,,1966
1,Waldemar Nacewicz,Poland,132.45,,,,,-220,220,230,235,,,,,230,140,Pro Masters 50-54,M,B,Raw,,230,,1963
1,Franciszek Szabluk,Poland,97.1,,,,,-150,150,160,165,,,,,160,100,Pro Masters 60-64,M,B,Raw,,160,,1956
1,Miroslaw Orłowski,Poland,98.05,,,,,135,-140,-140,,,,,,135,100,Pro Masters 70-74,M,B,Raw,,135,,1943
1,Kostiantyn Grabovskyi,Ukraine,93.5,,,,,200,-210,210,,,,,,210,100,Pro Military/Fire/Police,M,B,Raw,,210,,1976
1,Ilia Kochiashvili,Georgia,108.55,,,,,-150,160,-175,,,,,,160,110,Pro Military/Fire/Police,M,B,Raw,,160,,1991
1,Shalva Bebiashvili,Georgia,119.6,,,,,-180,180,-190,,,,,,180,125,Pro Military/Fire/Police,M,B,Raw,,180,,1987
1,Weronika Szczytyńska,Poland,75.7,,,,,70,75,77.5,-80,,,,,77.5,82.5,Pro Juniors 20-23,F,B,Raw,,77.5,,1994
1,Jolanta Popowicz,Poland,56.75,,,,,80,82.5,-85,,,,,,82.5,60,Pro Open,F,B,Raw,,82.5,,1969
2,Olena Shcherbinina,Ukraine,57.3,,,,,60,65,-67.5,,,,,,65,60,Pro Open,F,B,Raw,,65,,1982
1,Honorata Kaczorowska,Poland,63.7,,,,,115,-120,-120,,,,,,115,67.5,Pro Open,F,B,Raw,,115,,1985
2,Adriana Bończak,Poland,66.35,,,,,90,-95,95,-97.5,,,,,95,67.5,Pro Open,F,B,Raw,,95,,1973
3,Olena Razuvaieva,Ukraine,66,,,,,77.5,80,-85,,,,,,80,67.5,Pro Open,F,B,Raw,,80,,1988
1,Monika Gryziecka,Poland,67.7,,,,,57.5,62.5,-67.5,,,,,,62.5,75,Pro Open,F,B,Raw,,62.5,,1981
1,Anita Grądzka,Poland,42.7,,,,,50,-55,57.5,60,,,,,57.5,44,Pro Submasters 33-39,F,B,Raw,,57.5,,1984
1,Olena Shcherbinina,Ukraine,57.3,,,,,60,65,-67.5,,,,,,65,60,Pro Submasters 33-39,F,B,Raw,,65,,1982
1,Monika Gryziecka,Poland,67.7,,,,,57.5,62.5,-67.5,,,,,,62.5,75,Pro Submasters 33-39,F,B,Raw,,62.5,,1981
1,Adriana Bończak,Poland,66.35,,,,,90,-95,95,-97.5,,,,,95,67.5,Pro Masters 40-44,F,B,Raw,,95,,1973
1,Jolanta Popowicz,Poland,56.75,,,,,80,82.5,-85,,,,,,82.5,60,Pro Masters 45-49,F,B,Raw,,82.5,,1969
1,Mykhaylo Malkush,Ukraine,58.1,,,,,150,158,-160,,,,,,158,60,Amateur Juniors 20-23,M,B,Multi-ply,,158,,1996
1,Mykhaylo Malkush,Ukraine,58.1,,,,,150,158,-160,,,,,,158,60,Amateur Open,M,B,Multi-ply,,158,,1996
1,Mykhailo Stasenko,Ukraine,66.7,,,,,-140,140,150,,,,,,150,67.5,Amateur Open,M,B,Multi-ply,,150,,1991
1,Irakli Tskhovrebashvili,Georgia,89.8,,,,,210,-230,-230,,,,,,210,90,Amateur Open,M,B,Multi-ply,,210,,1981
2,Sergiy Andrienko,Ukraine,88.95,,,,,150,160,-170,,,,,,160,90,Amateur Open,M,B,Multi-ply,,160,,1982
1,Viktor Bozhukha,Ukraine,116.3,,,,,205,-215,-215,,,,,,205,125,Amateur Open,M,B,Multi-ply,,205,,1978
1,Oleksandr Shvab,Ukraine,126.1,,,,,180,200,,,,,,,200,140,Amateur Open,M,B,Multi-ply,,200,,1976
1,Irakli Tskhovrebashvili,Georgia,89.8,,,,,210,-230,-230,,,,,,210,90,Amateur Submasters 33-39,M,B,Multi-ply,,210,,1981
1,Viktor Bozhukha,Ukraine,116.3,,,,,205,-215,-215,,,,,,205,125,Amateur Submasters 33-39,M,B,Multi-ply,,205,,1978
1,Oleksandr Shvab,Ukraine,126.1,,,,,180,200,,,,,,,200,140,Amateur Masters 40-44,M,B,Multi-ply,,200,,1976
1,Stefan Sochaňski,Poland,90.1,,,,,105,115,,,,,,,115,100,Amateur Masters 65-69,M,B,Multi-ply,,115,,1943
1,Valērijs Petrovs,Latvia,87.6,,,,,125,130,135,,,,,,135,90,Amateur Masters 70-74,M,B,Multi-ply,,135,,1946
1,Andranik Asatryan,Armenia,73.3,,,,,125,-135,-135,,,,,,125,75,Pro Teen 16-17,M,B,Multi-ply,,125,,2000
DQ,Roman Pelykh,Ukraine,72.7,,,,,-220,-220,-220,,,,,,,75,Pro Open,M,B,Multi-ply,,,,1985
1,Sergiy Naleykin,Ukraine,80.05,,,,,270,290,295,,,,,,295,82.5,Pro Open,M,B,Multi-ply,,295,,1981
1,Oleksii Melnyk,Ukraine,86.85,,,,,-290,295,-310,,,,,,295,90,Pro Open,M,B,Multi-ply,,295,,1990
2,Kostiantyn Chernov,Ukraine,89.35,,,,,272.5,282.5,290,,,,,,290,90,Pro Open,M,B,Multi-ply,,290,,1984
3,Yukhym Stepatskyy,Ukraine,89.3,,,,,210,-220,,,,,,,210,90,Pro Open,M,B,Multi-ply,,210,,1987
DQ,Volodymyr Galyga,Ukraine,89.95,,,,,-260,-265,-265,,,,,,,90,Pro Open,M,B,Multi-ply,,,,1983
1,Vitaliy Popov,Belarus,98.7,,,,,260,272.5,280,,,,,,280,100,Pro Open,M,B,Multi-ply,,280,,1977
2,Volodymyr Mygas,Ukraine,93,,,,,230,235,242.5,,,,,,242.5,100,Pro Open,M,B,Multi-ply,,242.5,,1975
1,Sergiy Ivanov,Ukraine,105.4,,,,,-330,330,345,,,,,,345,110,Pro Open,M,B,Multi-ply,,345,,1990
2,Aleksandr Makey,Belarus,106.8,,,,,-250,250,-260,,,,,,250,110,Pro Open,M,B,Multi-ply,,250,,1964
3,Andriy Gimbarov,Ukraine,108.1,,,,,150,190,-200,,,,,,190,110,Pro Open,M,B,Multi-ply,,190,,1966
1,Andriy Lomnytskyy,Ukraine,116.75,,,,,285,-302.5,-302.5,,,,,,285,125,Pro Open,M,B,Multi-ply,,285,,1980
DQ,Volodymyr Galyga,Ukraine,89.95,,,,,-260,-265,-265,,,,,,,90,Pro Submasters 33-39,M,B,Multi-ply,,,,1983
1,Volodymyr Mygas,Ukraine,93,,,,,230,235,242.5,,,,,,242.5,100,Pro Masters 40-44,M,B,Multi-ply,,242.5,,1975
1,Valentin Petrovskii,Belarus,99.3,,,,,190,200,210,,,,,,210,100,Pro Masters 45-49,M,B,Multi-ply,,210,,1967
1,Aleksandr Makey,Belarus,106.8,,,,,-250,250,-260,,,,,,250,110,Pro Masters 50-54,M,B,Multi-ply,,250,,1964
2,Andriy Gimbarov,Ukraine,108.1,,,,,150,190,-200,,,,,,190,110,Pro Masters 50-54,M,B,Multi-ply,,190,,1966
1,Miroslaw Orłowski,Poland,98.05,,,,,-165,-165,165,,,,,,165,100,Pro Masters 70-74,M,B,Multi-ply,,165,,1943
1,Yukhym Stepatskyy,Ukraine,89.3,,,,,210,-220,,,,,,,210,90,Pro Military/Fire/Police,M,B,Multi-ply,,210,,1987
1,Hovhannes Antonyan,Armenia,49.65,,,,,,,,,50,70,90,,90,52,Amateur Sub-Teen 11-12,M,D,Raw,,,90,2006
1,Kevin Messina,Italy,72.6,,,,,,,,,135,140,-145,,140,75,Amateur Teen 13-15,M,D,Raw,,,140,2003
1,Karen Arakelyan,Armenia,75,,,,,,,,,150,170,180,,180,75,Amateur Teen 16-17,M,D,Raw,,,180,2000
1,Mykhailo Yurchenko,Ukraine,74.2,,,,,,,,,240,255,-265.5,,255,75,Amateur Teen 18-19,M,D,Raw,,,255,1999
2,Eugenij Tymokhin,Ukraine,73.95,,,,,,,,,160,170,-175,,170,75,Amateur Teen 18-19,M,D,Raw,,,170,1997
1,Ivan Messina,Italy,77.2,,,,,,,,,180,190,200,,200,82.5,Amateur Teen 18-19,M,D,Raw,,,200,1998
1,Emre Cakar,Turkey,82.95,,,,,,,,,-190,200,210,,210,90,Amateur Teen 18-19,M,D,Raw,,,210,1998
1,Talha Çetin,Turkey,104.1,,,,,,,,,250,262.5,265,-270,265,110,Amateur Teen 18-19,M,D,Raw,,,265,1997
1,Andrea Di Trio,Italy,64.55,,,,,,,,,145,200,220,-232.5,220,67.5,Amateur Juniors 20-23,M,D,Raw,,,220,1993
1,Yuri Mayilyan,Armenia,70.1,,,,,,,,,200,-210,210,,210,75,Amateur Juniors 20-23,M,D,Raw,,,210,1994
1,Bogdan Druz,Ukraine,82.2,,,,,,,,,-202.5,-202.5,202.5,,202.5,82.5,Amateur Juniors 20-23,M,D,Raw,,,202.5,1997
1,Arkadiy Boldyrev,Ukraine,93,,,,,,,,,235,250,260,,260,100,Amateur Juniors 20-23,M,D,Raw,,,260,1994
1,Taras Shevchenko,Ukraine,106.2,,,,,,,,,210,230,-245,,230,110,Amateur Juniors 20-23,M,D,Raw,,,230,1995
1,Kamo Bagdasaryan,Armenia,50.6,,,,,,,,,120,140,160,171,160,52,Amateur Open,M,D,Raw,,,160,1993
1,Piotr Stefaniuk,Poland,59.35,,,,,,,,,170,180,185,,185,60,Amateur Open,M,D,Raw,,,185,1991
1,Mykhailo Yurchenko,Ukraine,74.2,,,,,,,,,240,255,-265.5,,255,75,Amateur Open,M,D,Raw,,,255,1999
2,Tomasz Miloch,Poland,74.86,,,,,,,,,220,230,240,,240,75,Amateur Open,M,D,Raw,,,240,1983
1,Evgen Kytajgorodskii,Ukraine,81.2,,,,,,,,,220,-232.5,-232.5,,220,82.5,Amateur Open,M,D,Raw,,,220,1989
2,Mateusz Buławski,Poland,82.4,,,,,,,,,195,207.5,-212.5,,207.5,82.5,Amateur Open,M,D,Raw,,,207.5,1989
1,Furkan Taskin,Turkey,88,,,,,,,,,280,-292.5,292.5,,292.5,90,Amateur Open,M,D,Raw,,,292.5,1990
1,Oleksandr Lisovskiy #1,Ukraine,94.8,,,,,,,,,252.5,265,275,,275,100,Amateur Open,M,D,Raw,,,275,1990
2,Nazar Korzhak,Ukraine,98.7,,,,,,,,,230,-250,-250,,230,100,Amateur Open,M,D,Raw,,,230,1993
1,Andriy Kuzin,Ukraine,101.8,,,,,,,,,210,225,230,,230,110,Amateur Open,M,D,Raw,,,230,1985
2,Pavlo Kipnyak,Ukraine,106.4,,,,,,,,,210,230,,,230,110,Amateur Open,M,D,Raw,,,230,1969
1,Viktor Bozhukha,Ukraine,116.3,,,,,,,,,210,220,230,,230,125,Amateur Open,M,D,Raw,,,230,1978
1,Oleksandr Kalkutin,Ukraine,131,,,,,,,,,210,230,-240,,230,140,Amateur Open,M,D,Raw,,,230,1965
1,Oleg Brazhnyk,Ukraine,160,,,,,,,,,180,200,210,,210,140+,Amateur Open,M,D,Raw,,,210,1970
1,Tomasz Miloch,Poland,74.86,,,,,,,,,220,230,240,,240,75,Amateur Submasters 33-39,M,D,Raw,,,240,1983
1,Karen Hovhannisyan,Armenia,80.3,,,,,,,,,160,180,-200,,180,82.5,Amateur Submasters 33-39,M,D,Raw,,,180,1978
1,David Asoyan,Armenia,89.05,,,,,,,,,170,-190,-190,,170,90,Amateur Submasters 33-39,M,D,Raw,,,170,1981
1,Volodymyr Ranevskyy,Ukraine,96,,,,,,,,,150,160,170,,170,100,Amateur Submasters 33-39,M,D,Raw,,,170,1979
1,Viktor Bozhukha,Ukraine,116.3,,,,,,,,,210,220,230,,230,125,Amateur Submasters 33-39,M,D,Raw,,,230,1978
1,Andrii Zhdanov,Ukraine,89.25,,,,,,,,,200,225,,,225,90,Amateur Masters 40-44,M,D,Raw,,,225,1975
1,Igor Gavrylov,Ukraine,109.05,,,,,,,,,250,262.5,275,,275,110,Amateur Masters 40-44,M,D,Raw,,,275,1977
1,Pavlo Kipnyak,Ukraine,106.4,,,,,,,,,210,230,,,230,110,Amateur Masters 45-49,M,D,Raw,,,230,1969
1,Oleg Brazhnyk,Ukraine,160,,,,,,,,,180,200,210,,210,140+,Amateur Masters 45-49,M,D,Raw,,,210,1970
1,Andrzej Stasiak,Poland,79.6,,,,,,,,,165,185,190,,190,82.5,Amateur Masters 50-54,M,D,Raw,,,190,1965
2,Viacheslav Bulgakov,Ukraine,82.25,,,,,,,,,150,160,170,,170,82.5,Amateur Masters 50-54,M,D,Raw,,,170,1966
3,Gennadiy Ivanchenko,Ukraine,80.95,,,,,,,,,130,140,150,,150,82.5,Amateur Masters 50-54,M,D,Raw,,,150,1966
1,Oleksandr Kalkutin,Ukraine,131,,,,,,,,,210,230,-240,,230,140,Amateur Masters 50-54,M,D,Raw,,,230,1965
1,Jan Łuka,Poland,84.55,,,,,,,,,230,-240,-240,,230,90,Amateur Masters 65-69,M,D,Raw,,,230,1949
1,Stefan Sochaňski,Poland,90.1,,,,,,,,,190,212.5,,,212.5,100,Amateur Masters 65-69,M,D,Raw,,,212.5,1948
1,Igor Zubarev,Ukraine,74,,,,,,,,,75,92.5,97.5,,97.5,75,Amateur Masters 75-79,M,D,Raw,,,97.5,1941
1,Roman Baichykov,Ukraine,96.2,,,,,,,,,100,105,115,,115,100,Amateur Military/Fire/Police,M,D,Raw,,,115,1990
1,Diana Mishchenko,Ukraine,58.8,,,,,,,,,80,87.5,92.5,,92.5,60,Amateur Teen 16-17,F,D,Raw,,,92.5,2000
1,Joanna Gawron,Poland,59.7,,,,,,,,,120,130,135,,135,60,Amateur Juniors 20-23,F,D,Raw,,,135,1993
1,Yana Mulishova,Ukraine,62.3,,,,,,,,,80,90,95,,95,67.5,Amateur Juniors 20-23,F,D,Raw,,,95,1995
1,Renata Zapała,Poland,72.65,,,,,,,,,130,140,-145,,140,75,Amateur Juniors 20-23,F,D,Raw,,,140,1994
1,Nadiya Osaenko,Ukraine,43.8,,,,,,,,,-80,-85,85,,85,44,Amateur Open,F,D,Raw,,,85,1990
1,Tetyana Stepatska,Ukraine,47.9,,,,,,,,,75,82.5,90,,90,48,Amateur Open,F,D,Raw,,,90,1989
DQ,Olena Cheremnova,Ukraine,52,,,,,,,,,105,,,,,52,Amateur Open,F,D,Raw,,,105,1983
1,Olga Yarmolyuk,Ukraine,54.3,,,,,,,,,-142.5,152.5,157.5,,157.5,56,Amateur Open,F,D,Raw,,,157.5,1989
2,Olga Skorokhodova,Ukraine,56,,,,,,,,,120,-130,130,,130,56,Amateur Open,F,D,Raw,,,130,1980
3,Alla Ryazanova,Ukraine,56,,,,,,,,,115,125,-130,,125,56,Amateur Open,F,D,Raw,,,125,1979
4,Yuliia Tsymbalyuk,Ukraine,53.1,,,,,,,,,-95,102.5,107.5,,107.5,56,Amateur Open,F,D,Raw,,,107.5,1987
1,Yuliya Malinovska,Ukraine,60,,,,,,,,,130,140,150,,150,60,Amateur Open,F,D,Raw,,,150,1984
1,Karolina Wójcik,Poland,61.3,,,,,,,,,115,120,-125,,120,67.5,Amateur Open,F,D,Raw,,,120,1988
1,Viktoria Olijnyk,Ukraine,75,,,,,,,,,120,130,-140,,130,75,Amateur Open,F,D,Raw,,,130,1968
1,Tetiana Grygorieva,Ukraine,55.45,,,,,,,,,120,132.5,-140,,132.5,56,Amateur Submasters 33-39,F,D,Raw,,,132.5,1980
2,Olga Skorokhodova,Ukraine,56,,,,,,,,,120,-130,130,,130,56,Amateur Submasters 33-39,F,D,Raw,,,130,1980
1,Marzena Janzer,Poland,75.75,,,,,,,,,110,120,125,,125,82.5,Amateur Masters 40-44,F,D,Raw,,,125,1974
1,Olga Kritikova,Ukraine,63,,,,,,,,,-90,-100,100,,100,67.5,Amateur Masters 45-49,F,D,Raw,,,100,1971
1,Viktoria Olijnyk,Ukraine,75,,,,,,,,,120,130,-140,,130,75,Amateur Masters 45-49,F,D,Raw,,,130,1968
1,Marko Melnyk,Ukraine,59.15,,,,,,,,,100,115,-125,,115,60,Pro Teen 16-17,M,D,Raw,,,115,2000
1,Giorgi Lortkipanidze,Georgia,73.6,,,,,,,,,130,150,160,,160,75,Pro Teen 16-17,M,D,Raw,,,160,2001
1,Zurab Abashidze,Georgia,99.75,,,,,,,,,170,210,220,,220,100,Pro Teen 16-17,M,D,Raw,,,220,2000
1,Andriy Boiko,Ukraine,74.6,,,,,,,,,200,207.5,220,,220,75,Pro Juniors 20-23,M,D,Raw,,,220,1993
2,Nukri Diasamidze,Georgia,73.6,,,,,,,,,-160,160,212.5,,212.5,75,Pro Juniors 20-23,M,D,Raw,,,212.5,1996
3,Furkan Kaya,Turkey,72,,,,,,,,,190,202.5,210,,210,75,Pro Juniors 20-23,M,D,Raw,,,210,1993
4,Oleksiy Medvedev,Ukraine,74.85,,,,,,,,,180,200,-220,,200,75,Pro Juniors 20-23,M,D,Raw,,,200,1994
1,Elnur Balahasanzada,Azerbaijan,89.65,,,,,,,,,-230,-230,230,,230,90,Pro Juniors 20-23,M,D,Raw,,,230,1994
2,Aleksandre Saitadze,Georgia,89.65,,,,,,,,,-170,170,200,,200,90,Pro Juniors 20-23,M,D,Raw,,,200,1994
1,Piotr Sadowski #2,Poland,107.7,,,,,,,,,280,300,-310,,300,110,Pro Juniors 20-23,M,D,Raw,,,300,1996
1,Kostyantin Barkov,Ukraine,117.7,,,,,,,,,340,352.5,360,,360,125,Pro Juniors 20-23,M,D,Raw,,,360,1996
2,Ulaş Maden,Turkey,110.9,,,,,,,,,260,270,282.5,,282.5,125,Pro Juniors 20-23,M,D,Raw,,,282.5,1996
1,Arkadiy Shalokha,Ukraine,82.5,,,,,,,,,285,297.5,-302.5,,297.5,82.5,Pro Open,M,D,Raw,,,297.5,1983
1,Pavlo Ishchenko,Ukraine,84.1,,,,,,,,,290,-302.5,305,,305,90,Pro Open,M,D,Raw,,,305,1991
2,Yaroslav Lytvynenko,Ukraine,89.25,,,,,,,,,270,285,-292.5,,285,90,Pro Open,M,D,Raw,,,285,1976
3,Valerii Poryadin,Russia,89.6,,,,,,,,,210,230,,,230,90,Pro Open,M,D,Raw,,,230,1966
1,Sedrettin Ozbahçeci,Azerbaijan,97.75,,,,,,,,,225,-235,-235,,225,100,Pro Open,M,D,Raw,,,225,1976
1,Grzegorz Rompalski,Poland,104.6,,,,,,,,,270,300,-305,,300,110,Pro Open,M,D,Raw,,,300,1982
2,Łukasz Lipka,Poland,108.35,,,,,,,,,280,300,-312.5,,300,110,Pro Open,M,D,Raw,,,300,1992
3,Rafał Wójcik,Poland,109.95,,,,,,,,,280,295,-300,,295,110,Pro Open,M,D,Raw,,,295,1987
4,Viktor Rublyov,Ukraine,100.5,,,,,,,,,260,270,-280,,270,110,Pro Open,M,D,Raw,,,270,1975
5,Denys Sydorov,Ukraine,105.8,,,,,,,,,250,270,-300,,270,110,Pro Open,M,D,Raw,,,270,1987
1,Kostyantin Barkov,Ukraine,117.7,,,,,,,,,340,352.5,360,,360,125,Pro Open,M,D,Raw,,,360,1996
2,Paweł Pańszczyk,Poland,121.4,,,,,,,,,300,310,320,,320,125,Pro Open,M,D,Raw,,,320,1984
1,Robert Nemś,Poland,131.3,,,,,,,,,300,315,330,,330,140,Pro Open,M,D,Raw,,,330,1969
2,Oleksandr Gensitskyy,Ukraine,136.05,,,,,,,,,280,-300,-300,,280,140,Pro Open,M,D,Raw,,,280,1975
1,Grzegorz Rompalski,Poland,104.6,,,,,,,,,270,300,-305,,300,110,Pro Submasters 33-39,M,D,Raw,,,300,1982
1,Hayk Barsamyan,Armenia,132.05,,,,,,,,,260,280,-300,,280,140,Pro Submasters 33-39,M,D,Raw,,,280,1983
1,Yaroslav Lytvynenko,Ukraine,89.25,,,,,,,,,270,285,-292.5,,285,90,Pro Masters 40-44,M,D,Raw,,,285,1976
1,Sedrettin Ozbahçeci,Azerbaijan,97.75,,,,,,,,,225,-235,-235,,225,100,Pro Masters 40-44,M,D,Raw,,,225,1976
1,Viktor Rublyov,Ukraine,100.5,,,,,,,,,260,270,-280,,270,110,Pro Masters 40-44,M,D,Raw,,,270,1975
2,Ihar Pyzhyanau,Belarus,104.9,,,,,,,,,200,210,215,,215,110,Pro Masters 40-44,M,D,Raw,,,215,1972
1,Oleksandr Gensitskyy,Ukraine,136.05,,,,,,,,,280,-300,-300,,280,140,Pro Masters 40-44,M,D,Raw,,,280,1975
1,Datuna Mzhavanadze,Georgia,110,,,,,,,,,-200,200,240,,240,110,Pro Masters 45-49,M,D,Raw,,,240,1972
1,Robert Nemś,Poland,131.3,,,,,,,,,300,315,330,,330,140,Pro Masters 45-49,M,D,Raw,,,330,1969
1,Valerii Poryadin,Russia,89.6,,,,,,,,,210,230,,,230,90,Pro Masters 50-54,M,D,Raw,,,230,1966
1,Sergii Deniak,Ukraine,101.85,,,,,,,,,210,220,230,,230,110,Pro Masters 50-54,M,D,Raw,,,230,1966
1,Volodymyr Vasylenko,Ukraine,74.65,,,,,,,,,130,140,150,,150,75,Pro Masters 70-74,M,D,Raw,,,150,1943
1,Mateusz Ślósarski,Poland,86.6,,,,,,,,,140,150,160,,160,90,Pro Military/Fire/Police,M,D,Raw,,,160,1988
1,Michał Musiński,Poland,93.45,,,,,,,,,250,260,-268,,260,100,Pro Military/Fire/Police,M,D,Raw,,,260,1988
2,Piotr Gajowik,Poland,96.4,,,,,,,,,190,210,220,,220,100,Pro Military/Fire/Police,M,D,Raw,,,220,1987
1,Ilia Kochiashvili,Georgia,108.55,,,,,,,,,220,240,-260,,240,110,Pro Military/Fire/Police,M,D,Raw,,,240,1991
1,Shalva Bebiashvili,Georgia,119.6,,,,,,,,,250,260,265,,265,125,Pro Military/Fire/Police,M,D,Raw,,,265,1987
1,Alvard Manukyan,Armenia,60,,,,,,,,,60,80,-100,,80,60,Pro Juniors 20-23,F,D,Raw,,,80,1995
1,Mariia Kravchuk,Ukraine,55.9,,,,,,,,,140,155,,,155,56,Pro Open,F,D,Raw,,,155,1983
1,Olena Shcherbinina,Ukraine,57.3,,,,,,,,,105,120,-130,,120,60,Pro Open,F,D,Raw,,,120,1982
1,Olena Shcherbinina,Ukraine,57.3,,,,,,,,,105,120,-130,,120,60,Pro Submasters 33-39,F,D,Raw,,,120,1982
1,Nver Gharibyan,Armenia,107.2,,,,,,,,,180,,,,180,110,Amateur Open,M,D,Multi-ply,,,180,1987
1,Valerii Strelets,Ukraine,82.5,,,,,,,,,181,200,210,,210,82.5,Amateur Masters 40-44,M,D,Multi-ply,,,210,1975
1,Stefan Sochaňski,Poland,90.1,,,,,,,,,-215,215,-245,,215,100,Amateur Masters 65-69,M,D,Multi-ply,,,215,1948
1,Oleksii Tkachuk,Ukraine,115.95,,,,,,,,,280,302.5,312.5,,312.5,125,Pro Juniors 20-23,M,D,Multi-ply,,,312.5,1996
1,Oleksandr Panov,Ukraine,80.85,,,,,,,,,230,240,-250,,240,82.5,Pro Open,M,D,Multi-ply,,,240,1993
1,Yukhym Stepatskyy,Ukraine,89.3,,,,,,,,,280,-302.5,-302.5,,280,90,Pro Open,M,D,Multi-ply,,,280,1987
2,Andrii Tupchii,Ukraine,90,,,,,,,,,220,235,250,,250,90,Pro Open,M,D,Multi-ply,,,250,1987
3,Valerii Poryadin,Russia,89.6,,,,,,,,,-210,210,235,,235,90,Pro Open,M,D,Multi-ply,,,235,1966
1,Oleg Kovbasa,Ukraine,95.5,,,,,,,,,200,220,240,,240,100,Pro Masters 40-44,M,D,Multi-ply,,,240,1975
1,Yuriy Malygin,Ukraine,105.7,,,,,,,,,120,160,-180,,160,110,Pro Masters 45-49,M,D,Multi-ply,,,160,1967
1,Valerii Poryadin,Russia,89.6,,,,,,,,,-210,210,235,,235,90,Pro Masters 50-54,M,D,Multi-ply,,,235,1966
1,Sergiy Kolesnyk,Ukraine,100.65,,,,,,,,,220,240,250,,250,110,Pro Masters 50-54,M,D,Multi-ply,,,250,1963
1,Oleksandr Panov,Ukraine,80.85,,,,,,,,,230,240,-250,,240,82.5,Pro Military/Fire/Police,M,D,Multi-ply,,,240,1993
1,Yukhym Stepatskyy,Ukraine,89.3,,,,,,,,,280,-302.5,-302.5,,280,90,Pro Military/Fire/Police,M,D,Multi-ply,,,280,1987
