Name,Age,Division,Equipment,BodyweightKg,WeightClassKg,Sex,Squat1Kg,Squat2Kg,Squat3Kg,Best3SquatKg,Bench1Kg,Bench2Kg,Bench3Kg,Best3BenchKg,Deadlift1Kg,Deadlift2Kg,Deadlift3Kg,Best3DeadliftKg,TotalKg,Place,Event,BirthDate,Country
John Dolan #2,65,M_M6_CR_ABPU,Wraps,98.3,100,M,100,-112.5,120,120,75,82.5,-90,82.5,115,130,142.5,142.5,345,1,SBD,,
Charlie Evans #1,55,M_M4_R_BPU,Raw,123.2,125,M,,,,,140,145,150,150,,,,,150,1,B,,
Charlie Evans #1,55,M_M4_R_BPU,Raw,123.2,125,M,,,,,,,,,200,210,220,220,220,1,D,,
Gareth James,41,M_M1_CR_BPU,Wraps,92,100,M,195,205,-212.5,205,115,122.5,-127.5,122.5,245,252.5,-257.5,252.5,580,2,SBD,,
Paul Coates,42,M_M1_CR_BPU,Wraps,95.3,100,M,220,240,250,250,147.5,155,165,165,245,260,270,270,685,1,SBD,,
Alex Chaplin,42,M_M1_CR_BPU,Wraps,107.9,110,M,230,245,260,260,147.5,157.5,170,170,245,260,-270,260,690,1,SBD,,
Verrol Skerritt,53,M_M3_R_ABPU,Raw,115.8,125,M,,,,,152.5,160,165,165,,,,,165,1,B,,
Paul Edmonds,60,M_M5_R_BPU,Raw,123.35,125,M,,,,,155,172.5,180,180,,,,,180,1,B,,
Kevin Maher,59,M_M4_M_BPU,Multi-ply,107.3,110,M,,,,,212.5,220,-230,220,,,,,220,1,B,,
Rob Preston,51,M_M3_S_BPU,Single-ply,108.35,110,M,,,,,260,272.5,-280,272.5,,,,,272.5,1,B,,
Mark Taylor #2,47,M_M2_R_ABPU,Raw,66.4,67.5,M,120,130,140,140,80,85,90,90,130,140,150,150,380,1,SBD,,
James Shortland,21,M_J_CR_ABPU,Wraps,87.5,90,M,185,205,-220,205,95,105,-112.5,105,180,-192.5,-192.5,180,490,1,SBD,,
Danial Jones,29,M_O_CR_ABPU,Wraps,73.2,75,M,162.5,172.5,180,180,102.5,107.5,112.5,112.5,180,190,200,200,492.5,1,SBD,,
Michael Bland #1,25,M_O_CR_ABPU,Wraps,79.9,82.5,M,165,175,-185,175,105,110,115,115,180,190,200,200,490,2,SBD,,
Mike Roberts #3,38,M_O_CR_BPU,Wraps,82.4,82.5,M,150,160,-170,160,105,110,-120,110,180,190,-200,190,460,1,SBD,,
Kyle Hamilton,29,M_O_CR_ABPU,Wraps,81.4,82.5,M,165,-180,-185,165,85,87.5,90,90,205,220,-230,220,475,3,SBD,,
Adam McAvoy,27,M_O_CR_ABPU,Wraps,81.6,82.5,M,195,205,-210,205,127.5,135,-142.5,135,205,220,-240,220,560,1,SBD,,
Liam O'Sullivan,23,M_O_R_ABPU,Raw,82,82.5,M,170,182.5,-190,182.5,120,-127.5,130,130,210,-220,220,220,532.5,1,SBD,,
Josh Yates,22,M_J_CR_ABPU,Wraps,81.2,82.5,M,167.5,175,185,185,120,130,140,140,215,225,235,235,560,1,SBD,,
Fraser Montgomery,50,M_M3_R_ABPU,Raw,88.1,90,M,,,,,90,100,-105,100,,,,,100,1,B,,
James Mackie,19,M_T3_R_ABPU,Raw,73.4,75,M,100,137.5,-145,137.5,-145,-145,-145,,,,,,,DQ,SBD,,
Martin Roberts #2,35,M_O_R_ABPU,Raw,121.8,125,M,100,120,130,130,80,90,-110,90,100,125,150,150,370,1,SBD,,
Pete Bingham,36,M_O_CR_BPU,Wraps,89.9,90,M,180,195,200,200,140,147.5,155,155,210,230,-237.5,230,585,7,SBD,,
Danny Jones #2,25,M_O_CR_BPU,Wraps,97.9,100,M,-200,-200,200,200,140,150,160,160,240,250,-260,250,610,4,SBD,,
Beau Rogers,20,M_O_CR_BPU,Wraps,97.3,100,M,220,-240,240,240,120,127.5,130,130,240,260,-272.5,260,630,3,SBD,,
Philip Devlin,28,M_O_CR_BPU,Wraps,89.3,90,M,200,210,-220,210,150,160,170,170,250,260,272.5,272.5,652.5,6,SBD,1992-08-30,
Joe Lyons,32,M_O_CR_BPU,Wraps,88.6,90,M,270,-290,290,290,170,177.5,-180,177.5,240,265,272.5,272.5,740,3,SBD,,
Richard Martin #1,43,M_O_CR_BPU,Wraps,96.45,100,M,240,-260,260,260,142.5,150,152.5,152.5,240,260,-275,260,672.5,2,SBD,,
Ian Williams #1,27,M_O_CR_BPU,Wraps,86.85,90,M,255,270,275,275,-165,170,175,175,250,265,-275,265,715,5,SBD,,
Jamie Winter,29,M_O_CR_BPU,Wraps,91.8,100,M,260,275,290,290,140,160,185,185,260,275,290,290,765,1,SBD,,
Nathan Wickham,28,M_O_CR_BPU,Wraps,124.1,125,M,250,270,285,285,175,190,200,200,275,-290,290,290,775,2,SBD,,
Luke Whitford,32,M_O_CR_BPU,Wraps,89.05,90,M,240,265,275,275,157.5,165,172.5,172.5,265,290,-302.5,290,737.5,4,SBD,1988-10-09,
Chris Pugh #1,27,M_O_CR_BPU,Wraps,89.2,90,M,345,360,-370,360,207.5,212.5,-215,212.5,270,290,-302.5,290,862.5,2,SBD,,
Mariusz Pilinski,39,M_O_CR_BPU,Wraps,154,140+,M,320,340,360,360,210,220,-222.5,220,300,310,-315,310,890,1,SBD,,
Tom Griffiths #1,26,M_O_CR_BPU,Wraps,121.95,125,M,290,310,322.5,322.5,182.5,192.5,197.5,197.5,300,330,340,340,860,1,SBD,,
Charles McGivern,24,M_O_CR_BPU,Raw,105.5,110,M,235,250,260,260,145,160,,160,315,340,-360,340,760,1,SBD,1995-12-16,
John McKeown,36,M_O_CR_BPU,Wraps,135.2,140,M,330,345,355,355,180,-200,200,200,340,350,-362.5,350,905,1,SBD,,
Robert Masson,29,M_O_CR_BPU,Wraps,103.2,110,M,310,330,,330,165,175,180,180,275,-295,,275,785,1,SBD,,Scotland
Dayle Longford,32,M_O_CR_BPU,Wraps,89.6,90,M,340,-355,-355,340,215,222.5,-227.5,222.5,330,350,,350,912.5,1,SBD,,
Chris Francis #1,29,M_O_R_BPU,Raw,84,90,M,,,,,120,127.5,-132.5,127.5,,,,,127.5,1,B,,
Matthew Brown #14,35,M_O_R_BPU,Raw,97.5,100,M,,,,,140,155,-160,155,,,,,155,1,B,,
Andrew Cairney,41,M_O_CR_BPU,Wraps,130.7,140,M,,,,,,,,,,,,,,DQ,SBD,,Scotland
Alan Wilson,40,M_O_CR_BPU,Wraps,101.95,110,M,,,,,,,,,,,,,,DQ,SBD,,
Carol Hughes,43,F_M1_CR_ABPU,Wraps,126.3,90+,F,100,125,-140,125,60,70,75,75,100,125,135,135,335,1,SBD,,
Patricia Wetton,58,F_M4_R_ABPU,Raw,80.35,82.5,F,,,,,,,,,120,127.5,135,135,135,1,D,,
Nicola Thompson,33,F_O_CR_ABPU,Wraps,102.7,90+,F,110,120,130,130,50,-60,-60,50,120,130,140,140,320,2,SBD,,
Sammie England,36,F_O_CR_BPU,Wraps,72,75,F,125,135,142.5,142.5,62.5,67.5,70,70,135,145,155,155,367.5,2,SBD,,
Dawn Birchall,35,F_O_CR_ABPU,Wraps,115.6,90+,F,130,140,-150,140,70,75,-82.5,75,140,150,157.5,157.5,372.5,1,SBD,,
Kerry Jones,33,F_O_R_BPU,Raw,83.6,90,F,120,130,140,140,70,80,-87.5,80,140,150,160,160,380,1,SBD,,
Rachel Normington,30,F_O_M_BPU,Multi-ply,85.25,90,F,,,,,,,,,160,170,-185,170,170,1,D,,
Katie Edwards #3,32,F_O_CR_ABPU,Wraps,89.2,90,F,157.5,167.5,-172.5,167.5,77.5,82.5,-87.5,82.5,170,185,-192.5,185,435,1,SBD,,
Fay Northcott,28,F_O_CR_BPU,Wraps,81.4,82.5,F,167.5,175,182.5,182.5,70,77.5,-80,77.5,177.5,187.5,195,195,455,1,SBD,,
Ethan Markley #2,15,M_T1_CR_ABPU,Wraps,87.4,90,M,-135,142.5,155,155,80,92.5,-100,92.5,160,185,200,200,447.5,1,SBD,,
Theresa Cesnik,30,F_O_CR_BPU,Wraps,72.75,75,F,175,185,-195,185,110,115,-120,115,195,-200,-200,195,495,1,SBD,,
Matthew Slater #2,18,M_T3_CR_ABPU,Wraps,74.3,75,M,140,150,157.5,157.5,87.5,95,100,100,190,200,210,210,467.5,1,SBD,,
Ben McNicol,16,M_T2_CR_ABPU,Raw,87.15,90,M,185,192.5,202.5,202.5,105,110,115,115,187.5,202.5,212.5,212.5,530,1,SBD,,
Zsuzsanna Tóth,33,F_O_CR_BPU,Wraps,66.8,67.5,F,210,225,-232.5,225,95,100,-102.5,100,200,207.5,-215,207.5,532.5,1,SBD,,
Adam Walkowycz,17,M_T2_R_ABPU,Raw,92.05,100,M,,,,,,,,,220,235,240,240,240,1,D,,
Nicola Corbett,28,F_O_CR_BPU,Wraps,59.4,60,F,155,165,-170,165,72.5,80,85,85,170,182.5,,182.5,432.5,1,SBD,,
Jack Markley,17,M_T2_CR_ABPU,Wraps,66.4,67.5,M,100,,,100,75,,,75,110,,,110,285,1,SBD,,
Richard Evans,53,M_M3_S_ABPU,Single-ply,102.6,110,M,,,,,165,175,-182.5,175,,,,,175,1,B,,
Natalie Johnson,38,F_O_CR_ABPU,Wraps,73.6,75,F,-87.5,87.5,-92.5,87.5,70,75,-77.5,75,100,-112.5,-112.5,100,262.5,5,SBD,,
Amy Standerwick,25,F_O_CR_ABPU,Wraps,59.85,60,F,100,110,115,115,55,60,-62.5,60,110,122.5,130,130,305,1,SBD,,
Jenny Davies,25,F_O_CR_ABPU,Wraps,73.45,75,F,115,125,135,135,62.5,70,-75,70,110,117.5,-120,117.5,322.5,4,SBD,,
Vicky Ellis,40,F_M1_R_ABPU,Raw,52,52,F,-92.5,92.5,-97.5,92.5,50,55,-57.5,55,120,127.5,135,135,282.5,1,SBD,,
Vicky Ellis,40,F_O_R_ABPU,Raw,52,52,F,-92.5,92.5,-97.5,92.5,50,55,-57.5,55,120,127.5,135,135,282.5,1,SBD,,
Faye Nield,33,F_O_R_ABPU,Raw,71.5,75,F,107.5,115,120,120,70,75,77.5,77.5,120,130,140,140,337.5,2,SBD,,
Chanel Voong Hamilton,27,F_O_CR_ABPU,Wraps,60.3,67.5,F,90,97.5,-105,97.5,45,50,-52.5,50,130,140,145,145,292.5,1,SBD,,
Alex Scarlett,41,F_M1_R_ABPU,Raw,74.5,75,F,90,105,,105,60,62.5,65,65,145,160,-165,160,330,1,SBD,,
Kristina Dunkhase,28,F_O_CR_ABPU,Wraps,73.4,75,F,110,120,-125,120,80,85,90,90,150,-160,160,160,370,3,SBD,,Scotland
Ellis Johnson,29,F_O_R_ABPU,Raw,73.1,75,F,102.5,-110,-112.5,102.5,60,-65,65,65,157.5,167.5,-175,167.5,335,3,SBD,,
Charlie Mitchell #2,32,F_O_CR_ABPU,Wraps,73.95,75,F,145,-157.5,157.5,157.5,60,65,-67.5,65,160,170,177.5,177.5,400,2,SBD,,
Nia Golding,50,F_M3_R_ABPU,Raw,64.65,67.5,F,,,,,,,,,160,175,-180,175,175,1,D,,
Pamela Fellows,31,F_O_R_ABPU,Raw,71.4,75,F,140,150,157.5,157.5,77.5,82.5,87.5,87.5,172.5,185,192.5,192.5,437.5,1,SBD,,
Jemma Stubbs,32,F_O_CR_ABPU,Wraps,73.85,75,F,160,-172.5,172.5,172.5,70,75,-80,75,180,192.5,202.5,202.5,450,1,SBD,,
